%!PS-Adobe-3.0 EPSF-3.0
%Produced by poppler pdftops version: 0.59.0 (http://poppler.freedesktop.org)
%%Creator: Chromium
%%LanguageLevel: 3
%%DocumentSuppliedResources: (atend)
%%BoundingBox: 0 0 2405 815
%%HiResBoundingBox: 0 0 2405 815
%%DocumentSuppliedResources: (atend)
%%EndComments
%%BeginProlog
%%BeginResource: procset xpdf 3.00 0
%%Copyright: Copyright 1996-2011 Glyph & Cog, LLC
/xpdf 75 dict def xpdf begin
% PDF special state
/pdfDictSize 15 def
/pdfSetup {
  /setpagedevice where {
    pop 2 dict begin
      /Policies 1 dict dup begin /PageSize 6 def end def
      { /Duplex true def } if
    currentdict end setpagedevice
  } {
    pop
  } ifelse
} def
/pdfSetupPaper {
  % Change paper size, but only if different from previous paper size otherwise
  % duplex fails. PLRM specifies a tolerance of 5 pts when matching paper size
  % so we use the same when checking if the size changes.
  /setpagedevice where {
    pop currentpagedevice
    /PageSize known {
      2 copy
      currentpagedevice /PageSize get aload pop
      exch 4 1 roll
      sub abs 5 gt
      3 1 roll
      sub abs 5 gt
      or
    } {
      true
    } ifelse
    {
      2 array astore
      2 dict begin
        /PageSize exch def
        /ImagingBBox null def
      currentdict end
      setpagedevice
    } {
      pop pop
    } ifelse
  } {
    pop
  } ifelse
} def
/pdfStartPage {
  pdfDictSize dict begin
  /pdfFillCS [] def
  /pdfFillXform {} def
  /pdfStrokeCS [] def
  /pdfStrokeXform {} def
  /pdfFill [0] def
  /pdfStroke [0] def
  /pdfFillOP false def
  /pdfStrokeOP false def
  /pdfOPM false def
  /pdfLastFill false def
  /pdfLastStroke false def
  /pdfTextMat [1 0 0 1 0 0] def
  /pdfFontSize 0 def
  /pdfCharSpacing 0 def
  /pdfTextRender 0 def
  /pdfPatternCS false def
  /pdfTextRise 0 def
  /pdfWordSpacing 0 def
  /pdfHorizScaling 1 def
  /pdfTextClipPath [] def
} def
/pdfEndPage { end } def
% PDF color state
/opm { dup /pdfOPM exch def
      /setoverprintmode where{pop setoverprintmode}{pop}ifelse  } def
/cs { /pdfFillXform exch def dup /pdfFillCS exch def
      setcolorspace } def
/CS { /pdfStrokeXform exch def dup /pdfStrokeCS exch def
      setcolorspace } def
/sc { pdfLastFill not { pdfFillCS setcolorspace } if
      dup /pdfFill exch def aload pop pdfFillXform setcolor
     /pdfLastFill true def /pdfLastStroke false def } def
/SC { pdfLastStroke not { pdfStrokeCS setcolorspace } if
      dup /pdfStroke exch def aload pop pdfStrokeXform setcolor
     /pdfLastStroke true def /pdfLastFill false def } def
/op { /pdfFillOP exch def
      pdfLastFill { pdfFillOP setoverprint } if } def
/OP { /pdfStrokeOP exch def
      pdfLastStroke { pdfStrokeOP setoverprint } if } def
/fCol {
  pdfLastFill not {
    pdfFillCS setcolorspace
    pdfFill aload pop pdfFillXform setcolor
    pdfFillOP setoverprint
    /pdfLastFill true def /pdfLastStroke false def
  } if
} def
/sCol {
  pdfLastStroke not {
    pdfStrokeCS setcolorspace
    pdfStroke aload pop pdfStrokeXform setcolor
    pdfStrokeOP setoverprint
    /pdfLastStroke true def /pdfLastFill false def
  } if
} def
% build a font
/pdfMakeFont {
  4 3 roll findfont
  4 2 roll matrix scale makefont
  dup length dict begin
    { 1 index /FID ne { def } { pop pop } ifelse } forall
    /Encoding exch def
    currentdict
  end
  definefont pop
} def
/pdfMakeFont16 {
  exch findfont
  dup length dict begin
    { 1 index /FID ne { def } { pop pop } ifelse } forall
    /WMode exch def
    currentdict
  end
  definefont pop
} def
/pdfMakeFont16L3 {
  1 index /CIDFont resourcestatus {
    pop pop 1 index /CIDFont findresource /CIDFontType known
  } {
    false
  } ifelse
  {
    0 eq { /Identity-H } { /Identity-V } ifelse
    exch 1 array astore composefont pop
  } {
    pdfMakeFont16
  } ifelse
} def
% graphics state operators
/q { gsave pdfDictSize dict begin } def
/Q {
  end grestore
  /pdfLastFill where {
    pop
    pdfLastFill {
      pdfFillOP setoverprint
    } {
      pdfStrokeOP setoverprint
    } ifelse
  } if
  /pdfOPM where {
    pop
    pdfOPM /setoverprintmode where{pop setoverprintmode}{pop}ifelse 
  } if
} def
/cm { concat } def
/d { setdash } def
/i { setflat } def
/j { setlinejoin } def
/J { setlinecap } def
/M { setmiterlimit } def
/w { setlinewidth } def
% path segment operators
/m { moveto } def
/l { lineto } def
/c { curveto } def
/re { 4 2 roll moveto 1 index 0 rlineto 0 exch rlineto
      neg 0 rlineto closepath } def
/h { closepath } def
% path painting operators
/S { sCol stroke } def
/Sf { fCol stroke } def
/f { fCol fill } def
/f* { fCol eofill } def
% clipping operators
/W { clip newpath } def
/W* { eoclip newpath } def
/Ws { strokepath clip newpath } def
% text state operators
/Tc { /pdfCharSpacing exch def } def
/Tf { dup /pdfFontSize exch def
      dup pdfHorizScaling mul exch matrix scale
      pdfTextMat matrix concatmatrix dup 4 0 put dup 5 0 put
      exch findfont exch makefont setfont } def
/Tr { /pdfTextRender exch def } def
/Tp { /pdfPatternCS exch def } def
/Ts { /pdfTextRise exch def } def
/Tw { /pdfWordSpacing exch def } def
/Tz { /pdfHorizScaling exch def } def
% text positioning operators
/Td { pdfTextMat transform moveto } def
/Tm { /pdfTextMat exch def } def
% text string operators
/xyshow where {
  pop
  /xyshow2 {
    dup length array
    0 2 2 index length 1 sub {
      2 index 1 index 2 copy get 3 1 roll 1 add get
      pdfTextMat dtransform
      4 2 roll 2 copy 6 5 roll put 1 add 3 1 roll dup 4 2 roll put
    } for
    exch pop
    xyshow
  } def
}{
  /xyshow2 {
    currentfont /FontType get 0 eq {
      0 2 3 index length 1 sub {
        currentpoint 4 index 3 index 2 getinterval show moveto
        2 copy get 2 index 3 2 roll 1 add get
        pdfTextMat dtransform rmoveto
      } for
    } {
      0 1 3 index length 1 sub {
        currentpoint 4 index 3 index 1 getinterval show moveto
        2 copy 2 mul get 2 index 3 2 roll 2 mul 1 add get
        pdfTextMat dtransform rmoveto
      } for
    } ifelse
    pop pop
  } def
} ifelse
/cshow where {
  pop
  /xycp {
    0 3 2 roll
    {
      pop pop currentpoint 3 2 roll
      1 string dup 0 4 3 roll put false charpath moveto
      2 copy get 2 index 2 index 1 add get
      pdfTextMat dtransform rmoveto
      2 add
    } exch cshow
    pop pop
  } def
}{
  /xycp {
    currentfont /FontType get 0 eq {
      0 2 3 index length 1 sub {
        currentpoint 4 index 3 index 2 getinterval false charpath moveto
        2 copy get 2 index 3 2 roll 1 add get
        pdfTextMat dtransform rmoveto
      } for
    } {
      0 1 3 index length 1 sub {
        currentpoint 4 index 3 index 1 getinterval false charpath moveto
        2 copy 2 mul get 2 index 3 2 roll 2 mul 1 add get
        pdfTextMat dtransform rmoveto
      } for
    } ifelse
    pop pop
  } def
} ifelse
/Tj {
  fCol
  0 pdfTextRise pdfTextMat dtransform rmoveto
  currentpoint 4 2 roll
  pdfTextRender 1 and 0 eq {
    2 copy xyshow2
  } if
  pdfTextRender 3 and dup 1 eq exch 2 eq or {
    3 index 3 index moveto
    2 copy
    currentfont /FontType get 3 eq { fCol } { sCol } ifelse
    xycp currentpoint stroke moveto
  } if
  pdfTextRender 4 and 0 ne {
    4 2 roll moveto xycp
    /pdfTextClipPath [ pdfTextClipPath aload pop
      {/moveto cvx}
      {/lineto cvx}
      {/curveto cvx}
      {/closepath cvx}
    pathforall ] def
    currentpoint newpath moveto
  } {
    pop pop pop pop
  } ifelse
  0 pdfTextRise neg pdfTextMat dtransform rmoveto
} def
/TJm { 0.001 mul pdfFontSize mul pdfHorizScaling mul neg 0
       pdfTextMat dtransform rmoveto } def
/TJmV { 0.001 mul pdfFontSize mul neg 0 exch
        pdfTextMat dtransform rmoveto } def
/Tclip { pdfTextClipPath cvx exec clip newpath
         /pdfTextClipPath [] def } def
/Tclip* { pdfTextClipPath cvx exec eoclip newpath
         /pdfTextClipPath [] def } def
% Level 2/3 image operators
/pdfImBuf 100 string def
/pdfImStr {
  2 copy exch length lt {
    2 copy get exch 1 add exch
  } {
    ()
  } ifelse
} def
/skipEOD {
  { currentfile pdfImBuf readline
    not { pop exit } if
    (%-EOD-) eq { exit } if } loop
} def
/pdfIm { image skipEOD } def
/pdfMask {
  /ReusableStreamDecode filter
  skipEOD
  /maskStream exch def
} def
/pdfMaskEnd { maskStream closefile } def
/pdfMaskInit {
  /maskArray exch def
  /maskIdx 0 def
} def
/pdfMaskSrc {
  maskIdx maskArray length lt {
    maskArray maskIdx get
    /maskIdx maskIdx 1 add def
  } {
    ()
  } ifelse
} def
/pdfImM { fCol imagemask skipEOD } def
/pr { 2 index 2 index 3 2 roll putinterval 4 add } def
/pdfImClip {
  gsave
  0 2 4 index length 1 sub {
    dup 4 index exch 2 copy
    get 5 index div put
    1 add 3 index exch 2 copy
    get 3 index div put
  } for
  pop pop rectclip
} def
/pdfImClipEnd { grestore } def
% shading operators
/colordelta {
  false 0 1 3 index length 1 sub {
    dup 4 index exch get 3 index 3 2 roll get sub abs 0.004 gt {
      pop true
    } if
  } for
  exch pop exch pop
} def
/funcCol { func n array astore } def
/funcSH {
  dup 0 eq {
    true
  } {
    dup 6 eq {
      false
    } {
      4 index 4 index funcCol dup
      6 index 4 index funcCol dup
      3 1 roll colordelta 3 1 roll
      5 index 5 index funcCol dup
      3 1 roll colordelta 3 1 roll
      6 index 8 index funcCol dup
      3 1 roll colordelta 3 1 roll
      colordelta or or or
    } ifelse
  } ifelse
  {
    1 add
    4 index 3 index add 0.5 mul exch 4 index 3 index add 0.5 mul exch
    6 index 6 index 4 index 4 index 4 index funcSH
    2 index 6 index 6 index 4 index 4 index funcSH
    6 index 2 index 4 index 6 index 4 index funcSH
    5 3 roll 3 2 roll funcSH pop pop
  } {
    pop 3 index 2 index add 0.5 mul 3 index  2 index add 0.5 mul
    funcCol sc
    dup 4 index exch mat transform m
    3 index 3 index mat transform l
    1 index 3 index mat transform l
    mat transform l pop pop h f*
  } ifelse
} def
/axialCol {
  dup 0 lt {
    pop t0
  } {
    dup 1 gt {
      pop t1
    } {
      dt mul t0 add
    } ifelse
  } ifelse
  func n array astore
} def
/axialSH {
  dup 0 eq {
    true
  } {
    dup 8 eq {
      false
    } {
      2 index axialCol 2 index axialCol colordelta
    } ifelse
  } ifelse
  {
    1 add 3 1 roll 2 copy add 0.5 mul
    dup 4 3 roll exch 4 index axialSH
    exch 3 2 roll axialSH
  } {
    pop 2 copy add 0.5 mul
    axialCol sc
    exch dup dx mul x0 add exch dy mul y0 add
    3 2 roll dup dx mul x0 add exch dy mul y0 add
    dx abs dy abs ge {
      2 copy yMin sub dy mul dx div add yMin m
      yMax sub dy mul dx div add yMax l
      2 copy yMax sub dy mul dx div add yMax l
      yMin sub dy mul dx div add yMin l
      h f*
    } {
      exch 2 copy xMin sub dx mul dy div add xMin exch m
      xMax sub dx mul dy div add xMax exch l
      exch 2 copy xMax sub dx mul dy div add xMax exch l
      xMin sub dx mul dy div add xMin exch l
      h f*
    } ifelse
  } ifelse
} def
/radialCol {
  dup t0 lt {
    pop t0
  } {
    dup t1 gt {
      pop t1
    } if
  } ifelse
  func n array astore
} def
/radialSH {
  dup 0 eq {
    true
  } {
    dup 8 eq {
      false
    } {
      2 index dt mul t0 add radialCol
      2 index dt mul t0 add radialCol colordelta
    } ifelse
  } ifelse
  {
    1 add 3 1 roll 2 copy add 0.5 mul
    dup 4 3 roll exch 4 index radialSH
    exch 3 2 roll radialSH
  } {
    pop 2 copy add 0.5 mul dt mul t0 add
    radialCol sc
    encl {
      exch dup dx mul x0 add exch dup dy mul y0 add exch dr mul r0 add
      0 360 arc h
      dup dx mul x0 add exch dup dy mul y0 add exch dr mul r0 add
      360 0 arcn h f
    } {
      2 copy
      dup dx mul x0 add exch dup dy mul y0 add exch dr mul r0 add
      a1 a2 arcn
      dup dx mul x0 add exch dup dy mul y0 add exch dr mul r0 add
      a2 a1 arcn h
      dup dx mul x0 add exch dup dy mul y0 add exch dr mul r0 add
      a1 a2 arc
      dup dx mul x0 add exch dup dy mul y0 add exch dr mul r0 add
      a2 a1 arc h f
    } ifelse
  } ifelse
} def
end
%%EndResource
/CIDInit /ProcSet findresource begin
10 dict begin
  begincmap
  /CMapType 1 def
  /CMapName /Identity-H def
  /CIDSystemInfo 3 dict dup begin
    /Registry (Adobe) def
    /Ordering (Identity) def
    /Supplement 0 def
  end def
  1 begincodespacerange
    <0000> <ffff>
  endcodespacerange
  0 usefont
  1 begincidrange
    <0000> <ffff> 0
  endcidrange
  endcmap
  currentdict CMapName exch /CMap defineresource pop
end
10 dict begin
  begincmap
  /CMapType 1 def
  /CMapName /Identity-V def
  /CIDSystemInfo 3 dict dup begin
    /Registry (Adobe) def
    /Ordering (Identity) def
    /Supplement 0 def
  end def
  /WMode 1 def
  1 begincodespacerange
    <0000> <ffff>
  endcodespacerange
  0 usefont
  1 begincidrange
    <0000> <ffff> 0
  endcidrange
  endcmap
  currentdict CMapName exch /CMap defineresource pop
end
end
%%EndProlog
%%BeginSetup
xpdf begin
%%EndSetup
pdfStartPage
%%EndPageSetup
[] 0 d
1 i
0 j
0 J
10 M
1 w
/DeviceGray {} cs
[0] sc
/DeviceGray {} CS
[0] SC
false op
false OP
{} settransfer
0 0 2405 815 re
W
q
[1 0 0 -1 0 815] cm
q
0 0 2405 814.633 re
W*
q
[0.748056 0 0 0.748056 0 -814.633] cm
/DeviceRGB {} CS
[1 1 1] SC
/DeviceRGB {} cs
[1 1 1] sc
0 0 3215 2183 re
f
Q
Q
q
5.984448 0 2399.0156 812.38873 re
W*
q
[12.379578 0 0 12.376841 -48.076416 31.537579] cm
/DeviceRGB {} CS
[1 1 1] SC
/DeviceRGB {} cs
[1 1 1] sc
54.168999 24.292 m
53.964001 20.635 50.950001 9.898 40.165001 8.589 c
37.98 8.323999 35.648003 8.079 33.398003 8.079 c
26.923002 8.079 22.464003 10.183 18.489002 15.115999 c
13.977002 20.712999 15.135002 25.485001 15.900003 28.641998 c
16.190002 29.833998 16.439003 30.863998 16.189003 31.364998 c
15.135003 33.473 11.547003 38.595997 11.505003 38.654999 c
10.652003 39.917999 10.422003 40.836998 10.782003 41.546997 c
11.329003 42.625996 13.043003 42.692997 14.700004 42.755997 c
15.839004 42.800995 17.130003 42.850998 17.510004 43.249996 c
18.310003 44.091995 18.404003 46.738995 18.472004 48.672997 c
18.520004 50.026997 18.558004 51.095997 18.777004 51.707996 c
18.910004 52.080997 19.267004 52.523994 20.214005 52.523994 c
20.841005 52.523994 21.615005 52.348995 22.511005 52.146996 c
23.906006 51.832996 25.621006 51.502995 26.714005 51.774994 c
27.193005 51.894993 27.546005 52.153996 27.792004 52.566994 c
28.585003 53.901993 27.985004 56.273994 27.980003 56.296993 c
27.941004 56.446995 27.974003 56.606995 28.069004 56.728992 c
28.163004 56.850994 28.309004 56.922993 28.464005 56.922993 c
49.029999 56.922993 l
49.185997 56.922993 49.330997 56.840992 49.424999 56.716991 c
49.52 56.592991 49.548 56.422993 49.507 56.272991 c
49.501999 56.252991 49.376999 55.77599 49.376999 53.624992 c
49.376999 53.048992 49.296997 52.485992 49.211998 51.891991 c
48.931 49.911991 48.579998 47.44799 50.878998 42.30999 c
51.387997 41.173988 51.834999 40.25399 52.223999 39.452991 c
54.195 35.391998 54.724998 34.300999 54.168999 24.292 c
h
51.324001 39.014 m
50.931 39.822998 50.479 40.751999 49.967003 41.900002 c
47.549004 47.300003 47.939003 50.035004 48.223003 52.031002 c
48.306004 52.614002 48.377003 53.118004 48.377003 53.624001 c
48.377003 54.767002 48.410004 55.479 48.451004 55.923 c
29.076 55.923 l
29.228001 55.005001 29.377001 53.277 28.653999 52.059002 c
28.269999 51.412003 27.699999 50.990002 26.958 50.804001 c
25.653999 50.478001 23.801001 50.831001 22.292999 51.171001 c
21.033998 51.456001 19.819 51.650002 19.719999 51.371002 c
19.552999 50.904003 19.514 49.803001 19.473 48.637001 c
19.389999 46.312 19.296999 43.677002 18.236 42.560001 c
17.577 41.866001 16.198999 41.813 14.74 41.756001 c
13.5 41.708 11.955999 41.649002 11.674999 41.094002 c
11.577 40.902 11.532999 40.401001 12.329 39.222 c
12.478 39.008999 15.997 33.986 17.083 31.812 c
17.497 30.983 17.221001 29.846001 16.872 28.407 c
16.152 25.439999 15.063999 20.957001 19.267 15.744 c
23.033001 11.073 27.259001 9.079 33.397999 9.079 c
35.594997 9.079 37.889999 9.320999 40.043999 9.582 c
50.323997 10.83 53.014 21.547001 53.170998 24.348 c
53.712002 34.098 53.254002 35.041 51.324001 39.014 c
h
f
30.679001 22.077999 m
30.488001 21.880999 30.172001 21.872999 29.972 22.064999 c
22.888 28.897999 l
22.886 28.9 22.885 28.902998 22.883001 28.905998 c
22.881001 28.907999 22.878002 28.907999 22.876001 28.910997 c
22.854002 28.933998 22.843 28.962997 22.827002 28.987997 c
22.809002 29.015997 22.786001 29.040997 22.774002 29.070997 c
22.761002 29.101997 22.760002 29.133997 22.753002 29.165997 c
22.747002 29.196997 22.737001 29.226997 22.737001 29.257996 c
22.737001 29.288994 22.747002 29.318996 22.753002 29.349995 c
22.759003 29.381994 22.761002 29.413994 22.774002 29.444994 c
22.786001 29.474995 22.809002 29.499994 22.827002 29.526995 c
22.844002 29.552994 22.854002 29.581995 22.876001 29.604994 c
22.878002 29.606995 22.881001 29.607994 22.883001 29.609993 c
22.885002 29.611994 22.886002 29.614992 22.888 29.617992 c
29.972 36.450993 l
30.069 36.544994 30.194 36.591991 30.319 36.591991 c
30.450001 36.591991 30.580999 36.540993 30.679001 36.438992 c
30.871 36.24099 30.865002 35.923992 30.666 35.73299 c
23.955 29.258991 l
30.666 22.785992 l
30.865 22.593 30.871 22.277 30.679001 22.077999 c
h
f
46.626999 29.164 m
46.620998 29.132999 46.618999 29.101 46.606998 29.070999 c
46.593998 29.040998 46.571999 29.014999 46.552998 28.987999 c
46.535999 28.962999 46.525997 28.933998 46.503998 28.911999 c
46.501999 28.909998 46.498997 28.908998 46.495998 28.907 c
46.493999 28.904999 46.493 28.902 46.490997 28.9 c
39.406998 22.066999 l
39.209999 21.875 38.892998 21.882 38.699997 22.08 c
38.508995 22.278999 38.513996 22.594999 38.713997 22.787001 c
45.424995 29.26 l
38.713997 35.734001 l
38.514996 35.925003 38.508995 36.242001 38.700996 36.440002 c
38.798996 36.543003 38.929996 36.593002 39.059998 36.593002 c
39.184998 36.593002 39.309998 36.546001 39.406998 36.452003 c
46.490997 29.619003 l
46.492996 29.617002 46.493996 29.615004 46.494999 29.613003 c
46.497997 29.610003 46.501999 29.610003 46.504997 29.607002 c
46.529999 29.581003 46.543999 29.547003 46.561996 29.517002 c
46.576996 29.494001 46.595997 29.473001 46.606995 29.448002 c
46.619995 29.415001 46.622993 29.380001 46.627995 29.345001 c
46.632996 29.316002 46.642994 29.288002 46.642994 29.260002 c
46.644001 29.226 46.633999 29.195 46.626999 29.164 c
h
f
37.896999 20.17 m
37.639999 20.083 37.350998 20.215 37.258999 20.475 c
31.176998 37.708 l
31.084999 37.967999 31.221998 38.254002 31.481998 38.346001 c
31.536999 38.366001 31.592999 38.374001 31.648998 38.374001 c
31.854998 38.374001 32.047997 38.246002 32.120998 38.040001 c
38.202999 20.808001 l
38.294998 20.548 38.158001 20.263 37.896999 20.17 c
h
f
Q
q
[35.994301 0 0 35.986343 721.55115 -25.190392] cm
/DeviceRGB {} CS
[1 1 1] SC
/DeviceRGB {} cs
[1 1 1] sc
2.32 10.12 m
1.94 10.12 1.62 9.8 1.62 9.42 c
1.62 5.7 l
1.62 5.32 1.94 5 2.32 5 c
3.84 5 l
4.24 5 4.54 5.32 4.54 5.7 c
4.54 9.42 l
4.54 9.8 4.24 10.12 3.84 10.12 c
2.32 10.12 l
h
13.18 5 m
13.56 5 13.88 5.32 13.88 5.7 c
13.88 19.139999 l
13.88 19.519999 13.56 19.84 13.18 19.84 c
11.66 19.84 l
11.26 19.84 10.96 19.52 10.96 19.139999 c
10.96 13.859999 l
4.54 13.859999 l
4.54 19.139999 l
4.54 19.519999 4.24 19.84 3.84 19.84 c
2.32 19.84 l
1.94 19.84 1.62 19.52 1.62 19.139999 c
1.62 11.66 l
1.62 11.28 1.94 10.96 2.32 10.96 c
10.96 10.96 l
10.96 5.7 l
10.96 5.32 11.26 5 11.66 5 c
13.18 5 l
h
28.5 14.36 m
28.34 14.2 28.26 13.96 28.32 13.74 c
28.379999 13.36 28.42 12.98 28.42 12.599999 c
28.42 11.219999 28.02 10.119999 27.200001 9.24 c
26.34 8.34 25.220001 7.9 23.82 7.9 c
22.4 7.9 21.299999 8.339999 20.439999 9.24 c
19.619999 10.12 19.219999 11.219999 19.219999 12.6 c
19.219999 13.980001 19.619999 15.08 20.439999 15.960001 c
21.299999 16.860001 22.399998 17.300001 23.82 17.300001 c
24.360001 17.300001 24.860001 17.240002 25.32 17.1 c
24.18 15.96 l
24.059999 15.82 23.98 15.64 23.98 15.46 c
23.98 15.28 24.059999 15.1 24.18 14.96 c
25.26 13.88 l
25.540001 13.6 25.98 13.6 26.26 13.88 c
30.6 18.220001 l
30.880001 18.500002 30.880001 18.940001 30.6 19.220001 c
29.52 20.300001 l
29.4 20.440001 29.220001 20.500002 29.02 20.500002 c
28.84 20.500002 28.66 20.440002 28.52 20.300001 c
27.540001 19.300001 l
26.440001 19.900002 25.200001 20.200001 23.820002 20.200001 c
21.620001 20.200001 19.780003 19.460001 18.360001 17.980001 c
16.980001 16.540001 16.280001 14.740002 16.280001 12.600001 c
16.280001 10.460001 16.980001 8.660002 18.360001 7.220001 c
19.780001 5.760001 21.620001 5.000001 23.82 5.000001 c
26.019999 5.000001 27.860001 5.760001 29.279999 7.240001 c
30.659998 8.660001 31.359999 10.460001 31.359999 12.6 c
31.359999 13.56 31.199999 14.480001 30.9 15.34 c
30.82 15.56 30.639999 15.74 30.4 15.78 c
30.16 15.84 29.92 15.78 29.74 15.599999 c
28.5 14.36 l
h
34.98 5 m
35.380001 5 35.700001 5.32 35.700001 5.72 c
35.700001 7.18 l
35.700001 7.58 35.380001 7.9 34.98 7.9 c
32.919998 7.9 l
32.539997 7.9 32.219997 7.579999 32.219997 7.18 c
32.219997 5.72 l
32.219997 5.32 32.539997 5 32.919998 5 c
34.98 5 l
h
43.919998 5 m
44.299999 5 44.619999 5.32 44.619999 5.72 c
44.619999 7.18 l
44.619999 7.58 44.299999 7.9 43.919998 7.9 c
39.899998 7.9 l
39.899998 19.259998 l
39.899998 19.639997 39.579998 19.959999 39.199997 19.959999 c
37.659996 19.959999 l
37.259995 19.959999 36.939995 19.639999 36.939995 19.259998 c
36.939995 5.719998 l
36.939995 5.319998 37.259995 4.999999 37.659996 4.999999 c
43.919998 4.999999 l
43.919998 5 l
h
f
Q
Q
Q
showpage
%%PageTrailer
pdfEndPage
%%Trailer
end
%%DocumentSuppliedResources:
%%EOF
